Gaming through the years | Andre Davis
…
gaming

## # A tibble: 16,719 x 16
##    name  platform year_of_release genre publisher na_sales eu_sales
##    <chr> <chr>    <chr>           <chr> <chr>        <dbl>    <dbl>
##  1 Wii … Wii      2006            Spor… Nintendo      41.4    29.0 
##  2 Supe… NES      1985            Plat… Nintendo      29.1     3.58
##  3 Mari… Wii      2008            Raci… Nintendo      15.7    12.8 
##  4 Wii … Wii      2009            Spor… Nintendo      15.6    10.9 
##  5 Poke… GB       1996            Role… Nintendo      11.3     8.89
##  6 Tetr… GB       1989            Puzz… Nintendo      23.2     2.26
##  7 New … DS       2006            Plat… Nintendo      11.3     9.14
##  8 Wii … Wii      2006            Misc  Nintendo      14.0     9.18
##  9 New … Wii      2009            Plat… Nintendo      14.4     6.94
## 10 Duck… NES      1984            Shoo… Nintendo      26.9     0.63
## # … with 16,709 more rows, and 9 more variables: jp_sales <dbl>,
## #   other_sales <dbl>, global_sales <dbl>, critic_score <dbl>,
## #   critic_count <dbl>, user_score <chr>, user_count <dbl>,
## #   developer <chr>, rating <chr>
…
